{
  "values": [
    "emendatusenigmatica:tin_magmatic_stone_ore",
    "emendatusenigmatica:lapis_magmatic_stone_ore",
    "emendatusenigmatica:zinc_magmatic_stone_ore",
    "emendatusenigmatica:bitumen_magmatic_stone_ore",
    "emendatusenigmatica:coal_magmatic_stone_ore",
    "emendatusenigmatica:silver_magmatic_stone_ore",
    "emendatusenigmatica:uranium_magmatic_stone_ore",
    "emendatusenigmatica:redstone_magmatic_stone_ore",
    "emendatusenigmatica:emerald_magmatic_stone_ore",
    "emendatusenigmatica:aluminum_magmatic_stone_ore",
    "emendatusenigmatica:gold_magmatic_stone_ore",
    "emendatusenigmatica:apatite_magmatic_stone_ore",
    "emendatusenigmatica:copper_magmatic_stone_ore",
    "emendatusenigmatica:nickel_magmatic_stone_ore",
    "emendatusenigmatica:quartz_magmatic_stone_ore",
    "emendatusenigmatica:osmium_magmatic_stone_ore",
    "emendatusenigmatica:lead_magmatic_stone_ore",
    "emendatusenigmatica:diamond_magmatic_stone_ore",
    "emendatusenigmatica:iron_magmatic_stone_ore"
  ]
}