{
  "values": [
    "emendatusenigmatica:tin_netherrack_ore",
    "emendatusenigmatica:lapis_netherrack_ore",
    "emendatusenigmatica:zinc_netherrack_ore",
    "emendatusenigmatica:bitumen_netherrack_ore",
    "emendatusenigmatica:coal_netherrack_ore",
    "emendatusenigmatica:silver_netherrack_ore",
    "emendatusenigmatica:uranium_netherrack_ore",
    "emendatusenigmatica:redstone_netherrack_ore",
    "emendatusenigmatica:emerald_netherrack_ore",
    "emendatusenigmatica:aluminum_netherrack_ore",
    "emendatusenigmatica:gold_netherrack_ore",
    "emendatusenigmatica:apatite_netherrack_ore",
    "emendatusenigmatica:copper_netherrack_ore",
    "emendatusenigmatica:nickel_netherrack_ore",
    "emendatusenigmatica:quartz_netherrack_ore",
    "emendatusenigmatica:osmium_netherrack_ore",
    "emendatusenigmatica:lead_netherrack_ore",
    "emendatusenigmatica:diamond_netherrack_ore",
    "emendatusenigmatica:iron_netherrack_ore"
  ]
}