{
  "values": [
    "emendatusenigmatica:tin_scorchia_ore",
    "emendatusenigmatica:lapis_scorchia_ore",
    "emendatusenigmatica:zinc_scorchia_ore",
    "emendatusenigmatica:bitumen_scorchia_ore",
    "emendatusenigmatica:coal_scorchia_ore",
    "emendatusenigmatica:silver_scorchia_ore",
    "emendatusenigmatica:uranium_scorchia_ore",
    "emendatusenigmatica:redstone_scorchia_ore",
    "emendatusenigmatica:emerald_scorchia_ore",
    "emendatusenigmatica:aluminum_scorchia_ore",
    "emendatusenigmatica:gold_scorchia_ore",
    "emendatusenigmatica:apatite_scorchia_ore",
    "emendatusenigmatica:copper_scorchia_ore",
    "emendatusenigmatica:nickel_scorchia_ore",
    "emendatusenigmatica:quartz_scorchia_ore",
    "emendatusenigmatica:osmium_scorchia_ore",
    "emendatusenigmatica:lead_scorchia_ore",
    "emendatusenigmatica:diamond_scorchia_ore",
    "emendatusenigmatica:iron_scorchia_ore"
  ]
}