{
  "values": [
    "emendatusenigmatica:tin_white_sandstone_ore",
    "emendatusenigmatica:lapis_white_sandstone_ore",
    "emendatusenigmatica:zinc_white_sandstone_ore",
    "emendatusenigmatica:bitumen_white_sandstone_ore",
    "emendatusenigmatica:coal_white_sandstone_ore",
    "emendatusenigmatica:silver_white_sandstone_ore",
    "emendatusenigmatica:uranium_white_sandstone_ore",
    "emendatusenigmatica:redstone_white_sandstone_ore",
    "emendatusenigmatica:emerald_white_sandstone_ore",
    "emendatusenigmatica:aluminum_white_sandstone_ore",
    "emendatusenigmatica:gold_white_sandstone_ore",
    "emendatusenigmatica:apatite_white_sandstone_ore",
    "emendatusenigmatica:copper_white_sandstone_ore",
    "emendatusenigmatica:nickel_white_sandstone_ore",
    "emendatusenigmatica:quartz_white_sandstone_ore",
    "emendatusenigmatica:osmium_white_sandstone_ore",
    "emendatusenigmatica:lead_white_sandstone_ore",
    "emendatusenigmatica:diamond_white_sandstone_ore",
    "emendatusenigmatica:iron_white_sandstone_ore"
  ]
}