{
  "values": [
    "emendatusenigmatica:tin_andesite_ore",
    "emendatusenigmatica:lapis_andesite_ore",
    "emendatusenigmatica:zinc_andesite_ore",
    "emendatusenigmatica:bitumen_andesite_ore",
    "emendatusenigmatica:coal_andesite_ore",
    "emendatusenigmatica:silver_andesite_ore",
    "emendatusenigmatica:uranium_andesite_ore",
    "emendatusenigmatica:redstone_andesite_ore",
    "emendatusenigmatica:emerald_andesite_ore",
    "emendatusenigmatica:aluminum_andesite_ore",
    "emendatusenigmatica:gold_andesite_ore",
    "emendatusenigmatica:apatite_andesite_ore",
    "emendatusenigmatica:copper_andesite_ore",
    "emendatusenigmatica:nickel_andesite_ore",
    "emendatusenigmatica:quartz_andesite_ore",
    "emendatusenigmatica:osmium_andesite_ore",
    "emendatusenigmatica:lead_andesite_ore",
    "emendatusenigmatica:diamond_andesite_ore",
    "emendatusenigmatica:iron_andesite_ore"
  ]
}