{
  "values": [
    "emendatusenigmatica:tin_ochrum_ore",
    "emendatusenigmatica:tin_ochrum_ore_sample",
    "emendatusenigmatica:lapis_ochrum_ore",
    "emendatusenigmatica:lapis_ochrum_ore_sample",
    "emendatusenigmatica:zinc_ochrum_ore",
    "emendatusenigmatica:zinc_ochrum_ore_sample",
    "emendatusenigmatica:bitumen_ochrum_ore",
    "emendatusenigmatica:bitumen_ochrum_ore_sample",
    "emendatusenigmatica:coal_ochrum_ore",
    "emendatusenigmatica:coal_ochrum_ore_sample",
    "emendatusenigmatica:silver_ochrum_ore",
    "emendatusenigmatica:silver_ochrum_ore_sample",
    "emendatusenigmatica:uranium_ochrum_ore",
    "emendatusenigmatica:uranium_ochrum_ore_sample",
    "emendatusenigmatica:redstone_ochrum_ore",
    "emendatusenigmatica:redstone_ochrum_ore_sample",
    "emendatusenigmatica:emerald_ochrum_ore",
    "emendatusenigmatica:emerald_ochrum_ore_sample",
    "emendatusenigmatica:aluminum_ochrum_ore",
    "emendatusenigmatica:aluminum_ochrum_ore_sample",
    "emendatusenigmatica:gold_ochrum_ore",
    "emendatusenigmatica:gold_ochrum_ore_sample",
    "emendatusenigmatica:apatite_ochrum_ore",
    "emendatusenigmatica:apatite_ochrum_ore_sample",
    "emendatusenigmatica:copper_ochrum_ore",
    "emendatusenigmatica:copper_ochrum_ore_sample",
    "emendatusenigmatica:nickel_ochrum_ore",
    "emendatusenigmatica:nickel_ochrum_ore_sample",
    "emendatusenigmatica:quartz_ochrum_ore",
    "emendatusenigmatica:quartz_ochrum_ore_sample",
    "emendatusenigmatica:osmium_ochrum_ore",
    "emendatusenigmatica:osmium_ochrum_ore_sample",
    "emendatusenigmatica:lead_ochrum_ore",
    "emendatusenigmatica:lead_ochrum_ore_sample",
    "emendatusenigmatica:diamond_ochrum_ore",
    "emendatusenigmatica:diamond_ochrum_ore_sample",
    "emendatusenigmatica:iron_ochrum_ore",
    "emendatusenigmatica:iron_ochrum_ore_sample"
  ]
}