{
  "values": [
    "emendatusenigmatica:tin_veridium_ore",
    "emendatusenigmatica:lapis_veridium_ore",
    "emendatusenigmatica:zinc_veridium_ore",
    "emendatusenigmatica:bitumen_veridium_ore",
    "emendatusenigmatica:coal_veridium_ore",
    "emendatusenigmatica:silver_veridium_ore",
    "emendatusenigmatica:uranium_veridium_ore",
    "emendatusenigmatica:redstone_veridium_ore",
    "emendatusenigmatica:emerald_veridium_ore",
    "emendatusenigmatica:aluminum_veridium_ore",
    "emendatusenigmatica:gold_veridium_ore",
    "emendatusenigmatica:apatite_veridium_ore",
    "emendatusenigmatica:copper_veridium_ore",
    "emendatusenigmatica:nickel_veridium_ore",
    "emendatusenigmatica:quartz_veridium_ore",
    "emendatusenigmatica:osmium_veridium_ore",
    "emendatusenigmatica:lead_veridium_ore",
    "emendatusenigmatica:diamond_veridium_ore",
    "emendatusenigmatica:iron_veridium_ore"
  ]
}