{
  "values": [
    "emendatusenigmatica:netherite_ingot",
    "emendatusenigmatica:tin_ingot",
    "emendatusenigmatica:invar_ingot",
    "emendatusenigmatica:andesite_ingot",
    "emendatusenigmatica:zinc_ingot",
    "emendatusenigmatica:rose_gold_ingot",
    "emendatusenigmatica:hop_graphite_ingot",
    "emendatusenigmatica:sky_ingot",
    "emendatusenigmatica:iesnium_ingot",
    "emendatusenigmatica:brass_ingot",
    "emendatusenigmatica:bronze_ingot",
    "emendatusenigmatica:silver_ingot",
    "emendatusenigmatica:uranium_ingot",
    "emendatusenigmatica:refined_obsidian_ingot",
    "emendatusenigmatica:steel_ingot",
    "emendatusenigmatica:tainted_gold_ingot",
    "emendatusenigmatica:aluminum_ingot",
    "emendatusenigmatica:gold_ingot",
    "emendatusenigmatica:lumium_ingot",
    "emendatusenigmatica:signalum_ingot",
    "emendatusenigmatica:enderium_ingot",
    "emendatusenigmatica:refined_glowstone_ingot",
    "emendatusenigmatica:copper_ingot",
    "emendatusenigmatica:nickel_ingot",
    "emendatusenigmatica:electrum_ingot",
    "emendatusenigmatica:osmium_ingot",
    "emendatusenigmatica:constantan_ingot",
    "emendatusenigmatica:lead_ingot",
    "emendatusenigmatica:infused_iron_ingot",
    "emendatusenigmatica:iron_ingot"
  ]
}