{
  "type": "forge:add_features",
  "biomes": [
    "minecraft:swamp",
    "minecraft:mangrove_swamp",
    "byg:bayou",
    "byg:cypress_swamplands",
    "hexerei:willow_swamp"
  ],
  "features": "emendatusenigmatica:emerald_geode_swamp",
  "step": "underground_ores"
}