{
  "values": [
    "#mekanism:crystals/tin",
    "#mekanism:crystals/zinc",
    "#mekanism:crystals/iesnium",
    "#mekanism:crystals/silver",
    "#mekanism:crystals/uranium",
    "#mekanism:crystals/aluminum",
    "#mekanism:crystals/gold",
    "#mekanism:crystals/copper",
    "#mekanism:crystals/nickel",
    "#mekanism:crystals/osmium",
    "#mekanism:crystals/lead",
    "#mekanism:crystals/iron"
  ]
}