{
  "values": [
    "#mekanism:shards/tin",
    "#mekanism:shards/zinc",
    "#mekanism:shards/iesnium",
    "#mekanism:shards/silver",
    "#mekanism:shards/uranium",
    "#mekanism:shards/aluminum",
    "#mekanism:shards/gold",
    "#mekanism:shards/copper",
    "#mekanism:shards/nickel",
    "#mekanism:shards/osmium",
    "#mekanism:shards/lead",
    "#mekanism:shards/iron"
  ]
}